World Happiness Analysis
…
# merge all to one table
entire_data = bind_rows(tidy15 ,tidy16, tidy17, tidy18, tidy19, tidy20, tidy21)

# merge only 2015, 2018, 2021 - shorter version.
some_data = bind_rows(tidy15,tidy18, tidy21)

results

here is the tidy data:

tidy15

tidy15

## # A tibble: 158 x 9
##    country    score   gdp trust health freedom year  region             isIsrael
##    <chr>      <dbl> <dbl> <dbl>  <dbl>   <dbl> <fct> <chr>              <fct>   
##  1 Switzerla~  7.59  1.40 0.420  0.941   0.666 15    Western Europe     0       
##  2 Iceland     7.56  1.30 0.141  0.948   0.629 15    Western Europe     0       
##  3 Denmark     7.53  1.33 0.484  0.875   0.649 15    Western Europe     0       
##  4 Norway      7.52  1.46 0.365  0.885   0.670 15    Western Europe     0       
##  5 Canada      7.43  1.33 0.330  0.906   0.633 15    North America      0       
##  6 Finland     7.41  1.29 0.414  0.889   0.642 15    Western Europe     0       
##  7 Netherlan~  7.38  1.33 0.318  0.893   0.616 15    Western Europe     0       
##  8 Sweden      7.36  1.33 0.438  0.911   0.660 15    Western Europe     0       
##  9 New Zeala~  7.29  1.25 0.429  0.908   0.639 15    Australia and New~ 0       
## 10 Australia   7.28  1.33 0.356  0.932   0.651 15    Australia and New~ 0       
## # ... with 148 more rows

entire_data

entire_data

## # A tibble: 1,084 x 9
##    country    score   gdp trust health freedom year  region             isIsrael
##    <chr>      <dbl> <dbl> <dbl>  <dbl>   <dbl> <fct> <chr>              <fct>   
##  1 Switzerla~  7.59  1.40 0.420  0.941   0.666 15    Western Europe     0       
##  2 Iceland     7.56  1.30 0.141  0.948   0.629 15    Western Europe     0       
##  3 Denmark     7.53  1.33 0.484  0.875   0.649 15    Western Europe     0       
##  4 Norway      7.52  1.46 0.365  0.885   0.670 15    Western Europe     0       
##  5 Canada      7.43  1.33 0.330  0.906   0.633 15    North America      0       
##  6 Finland     7.41  1.29 0.414  0.889   0.642 15    Western Europe     0       
##  7 Netherlan~  7.38  1.33 0.318  0.893   0.616 15    Western Europe     0       
##  8 Sweden      7.36  1.33 0.438  0.911   0.660 15    Western Europe     0       
##  9 New Zeala~  7.29  1.25 0.429  0.908   0.639 15    Australia and New~ 0       
## 10 Australia   7.28  1.33 0.356  0.932   0.651 15    Australia and New~ 0       
## # ... with 1,074 more rows

score_yearly

score_yearly

## # A tibble: 137 x 8
##    country     score15 score16 score17 score18 score19 score20 score21
##    <chr>         <dbl>   <dbl>   <dbl>   <dbl>   <dbl>   <dbl>   <dbl>
##  1 Switzerland    7.59    7.51    7.49    7.49    7.48    7.56    7.57
##  2 Iceland        7.56    7.50    7.50    7.50    7.49    7.50    7.55
##  3 Denmark        7.53    7.53    7.52    7.56    7.6     7.65    7.62
##  4 Norway         7.52    7.50    7.54    7.59    7.55    7.49    7.39
##  5 Canada         7.43    7.40    7.32    7.33    7.28    7.23    7.10
##  6 Finland        7.41    7.41    7.47    7.63    7.77    7.81    7.84
##  7 Netherlands    7.38    7.34    7.38    7.44    7.49    7.45    7.46
##  8 Sweden         7.36    7.29    7.28    7.31    7.34    7.35    7.36
##  9 New Zealand    7.29    7.33    7.31    7.32    7.31    7.30    7.28
## 10 Australia      7.28    7.31    7.28    7.27    7.23    7.22    7.18
## # ... with 127 more rows
…
# insert diff total to the 2021 data
diff21 = inner_join(tidy21, diff_total, by="country")

# add diff.abs. absolute of diff.total
diff21 = diff21 %>% mutate(diff.abs = abs(diff.total))

results

diff_data

## # A tibble: 140 x 7
##    country     score.15 score.18 score.21 diff.18 diff.21 diff.total
##    <chr>          <dbl>    <dbl>    <dbl>   <dbl>   <dbl>      <dbl>
##  1 Switzerland     7.59     7.49     7.57 -0.100   0.0840   -0.016  
##  2 Iceland         7.56     7.50     7.55 -0.0660  0.059    -0.00700
##  3 Denmark         7.53     7.56     7.62  0.0280  0.065     0.0930 
##  4 Norway          7.52     7.59     7.39  0.072  -0.202    -0.130  
##  5 Canada          7.43     7.33     7.10 -0.0990 -0.225    -0.324  
##  6 Finland         7.41     7.63     7.84  0.226   0.210     0.436  
##  7 Netherlands     7.38     7.44     7.46  0.0630  0.023     0.086  
##  8 Sweden          7.36     7.31     7.36 -0.0500  0.049    -0.00100
##  9 New Zealand     7.29     7.32     7.28  0.038  -0.0470   -0.00900
## 10 Australia       7.28     7.27     7.18 -0.0120 -0.089    -0.101  
## # ... with 130 more rows

diff21

## # A tibble: 140 x 11
##    country  score   gdp trust health freedom year  region    isIsrael diff.total
##    <chr>    <dbl> <dbl> <dbl>  <dbl>   <dbl> <fct> <chr>     <fct>         <dbl>
##  1 Finland   7.84  1.08 0.186  0.72    0.949 21    Western ~ 0           0.436  
##  2 Denmark   7.62  1.09 0.179  0.727   0.946 21    Western ~ 0           0.0930 
##  3 Switzer~  7.57  1.11 0.292  0.744   0.919 21    Western ~ 0          -0.016  
##  4 Iceland   7.55  1.09 0.673  0.73    0.955 21    Western ~ 0          -0.00700
##  5 Netherl~  7.46  1.09 0.338  0.724   0.913 21    Western ~ 0           0.086  
##  6 Norway    7.39  1.11 0.27   0.733   0.96  21    Western ~ 0          -0.130  
##  7 Sweden    7.36  1.09 0.237  0.727   0.945 21    Western ~ 0          -0.00100
##  8 Luxembo~  7.32  1.16 0.386  0.726   0.907 21    Western ~ 0           0.378  
##  9 New Zea~  7.28  1.06 0.242  0.734   0.929 21    North Am~ 0          -0.00900
## 10 Austria   7.27  1.09 0.481  0.733   0.908 21    Western ~ 0           0.0680 
## # ... with 130 more rows, and 1 more variable: diff.abs <dbl>
…
